<svg width="663" height="520" viewBox="0 0 663 520" fill="none" xmlns="http://www.w3.org/2000/svg">
<path d="M1.52749 202.327C-10.2283 151.482 48.3107 101.747 93.4344 136.731C118.615 157.673 120.535 206.1 157.591 212.96C172.366 215.22 187.221 207.28 202.045 209.186C233.894 213.716 242.911 253.83 226.387 277.779C153.273 375.941 -11.5978 306.238 0.917714 187.331" fill="#D51F27"/>
<g opacity="0.7">
<path d="M1.52749 202.327C-10.2283 151.482 48.3107 101.747 93.4344 136.731C118.615 157.673 120.535 206.1 157.591 212.96C172.366 215.22 187.221 207.28 202.045 209.186C233.894 213.716 242.911 253.83 226.387 277.779C153.273 375.941 -11.5978 306.238 0.917714 187.331" fill="white"/>
</g>
<path d="M277.965 401.955C291.1 393.14 297.288 373.683 289.071 360.298C274.186 334.64 231.042 325.029 215.327 354.333C198.613 389.141 248.046 422.847 277.965 401.965V401.955Z" fill="#D51F27"/>
<g opacity="0.7">
<path d="M277.965 401.955C291.1 393.14 297.288 373.683 289.071 360.298C274.186 334.64 231.042 325.029 215.327 354.333C198.613 389.141 248.046 422.847 277.965 401.965V401.955Z" fill="white"/>
</g>
<path d="M662.86 334.666C663.279 291.791 613.847 255.913 574.421 279.497C563.225 286.2 555.088 296.872 548.321 307.917C544.612 313.971 540.744 320.643 534.076 323.287C525.409 326.736 515.883 322.039 506.716 320.24C485.174 315.69 462.152 329.625 456.714 350.645C448.697 383.261 471.968 406.551 496.849 420.673C560.426 456.64 664.559 411.878 662.86 334.666V334.666Z" fill="#D51F27"/>
<g opacity="0.7">
<path d="M662.86 334.666C663.279 291.791 613.847 255.913 574.421 279.497C563.225 286.2 555.088 296.872 548.321 307.917C544.612 313.971 540.744 320.643 534.076 323.287C525.409 326.736 515.883 322.039 506.716 320.24C485.174 315.69 462.152 329.625 456.714 350.645C448.697 383.261 471.968 406.551 496.849 420.673C560.426 456.64 664.559 411.878 662.86 334.666V334.666Z" fill="white"/>
</g>
<path d="M582.492 177.67C580.584 165.407 568.555 154.385 555.991 155.568C532.141 157.217 510.296 184.481 526.491 205.54C546.197 228.964 587.4 205.773 582.492 177.67V177.67Z" fill="#D51F27"/>
<g opacity="0.7">
<path d="M582.492 177.67C580.584 165.407 568.555 154.385 555.991 155.568C532.141 157.217 510.296 184.481 526.491 205.54C546.197 228.964 587.4 205.773 582.492 177.67V177.67Z" fill="white"/>
</g>
<path d="M76.0716 438.588C76.0716 438.588 80.359 444.266 92.4241 432.71C104.489 421.155 110.072 414.055 110.072 414.055C110.072 414.055 112.979 411.758 114.236 414.289C116.527 425.119 123.967 427.411 127.772 413.8C129.235 407.841 132.933 394.87 133.274 393.695C133.608 392.551 134.852 391.094 135.996 392.67C148.091 418.332 155.473 395.757 156.093 381.9C157.834 375.235 159.694 382.409 161.763 387.18C170.781 404.064 178.534 381.486 173.827 356.2L171.287 345.816L160.879 343.077C135.683 337.772 112.806 345.005 129.544 354.382C134.283 356.555 141.422 358.579 134.701 360.158C120.689 360.467 98.0458 367.302 123.436 379.954C124.981 381.133 123.505 382.337 122.34 382.649C121.153 382.959 108.071 386.339 102.07 387.661C88.374 391.116 90.4336 398.617 101.262 401.152C103.767 402.467 101.394 405.32 101.394 405.32C101.394 405.32 94.1343 410.723 82.274 422.482C70.4137 434.241 76.158 438.727 76.158 438.727" fill="#EFEFEF"/>
<path d="M173.062 344.722C149.238 367.897 110.496 404.951 87.0156 428.031C110.051 404.593 149.1 367.639 172.904 344.555" fill="#E6E6E6"/>
<path d="M119.333 414.13C119.497 408.396 120.818 400.111 121.55 394.357C121.334 400.085 120.021 408.375 119.333 414.13Z" fill="#E6E6E6"/>
<path d="M120.45 393.562C121.072 393.799 96.5369 393.038 97.1962 392.841C96.5743 392.604 121.109 393.365 120.45 393.562Z" fill="#E6E6E6"/>
<path d="M141.899 375.166C136.282 373.264 128.005 370.895 122.207 369.541C128.063 370.361 136.548 372.787 141.899 375.166Z" fill="#E6E6E6"/>
<path d="M144.954 393.863C143.813 388.593 142.521 380.835 141.885 375.45C143.026 380.721 144.319 388.478 144.954 393.863Z" fill="#E6E6E6"/>
<path d="M165.937 379.883C164.484 373.128 162.723 363.191 161.778 356.336C163.232 363.09 164.992 373.027 165.937 379.883Z" fill="#E6E6E6"/>
<path d="M161.449 356.693C154.239 354.56 143.623 351.853 136.26 350.259C143.695 351.317 154.478 354.069 161.449 356.693Z" fill="#E6E6E6"/>
<path d="M488.541 156.23C474.411 147.263 470.03 129.668 469.372 113.715C468.393 108.924 469.883 100.961 476.092 102.78C480.198 105.496 481.719 111.734 486.916 113.429C499.314 118.239 492.546 98.1318 493.072 91.713C492.494 86.7721 492.678 79.9946 497.909 78.0544C500.329 77.2383 503.486 78.5585 504.2 81.1224C504.9 94.7498 512.894 81.0607 514.551 75.8248C516.819 65.9555 530.149 51.6247 537.748 65.3551C539.477 74.8549 529.916 82.5258 523.842 88.2809C517.886 93.2087 527.039 95.6778 531.192 94.9865C537.797 95.2261 538.186 101.791 533.627 105.412C528.318 111.237 520.667 113.487 514.334 117.63C510.618 120.991 513.919 126.638 518.689 125.156C526.001 120.929 538.019 118.975 536.263 131.622C529.032 149.254 507.438 161.967 488.54 156.22" fill="#EFEFEF"/>
<path d="M492.286 145.905C498.723 116.273 511.893 82.3674 533.882 61.9304C512.475 82.8976 499.134 116.352 492.708 146.013" fill="#E6E6E6"/>
<path d="M503.901 107.086C501.81 98.9442 500.366 86.5379 498.365 78.374C501.018 86.4117 502.456 98.7 503.901 107.086Z" fill="#E6E6E6"/>
<path d="M537.659 98.8493C527.723 100.065 513.439 103.662 504.043 107.029C513.109 102.932 527.659 99.2655 537.659 98.8493Z" fill="#E6E6E6"/>
<path d="M491.112 145.497C484.513 133.475 477.372 115.326 471.415 102.98C478.014 115.003 485.155 133.152 491.112 145.497Z" fill="#E6E6E6"/>
<path d="M535.496 128.338C522.592 133.255 504.589 141.084 491.425 145.263C504.328 140.347 522.331 132.517 535.496 128.338Z" fill="#E6E6E6"/>
<path d="M642.275 216.243C641.194 228.52 625.33 229.305 615.938 226.288C618.977 216.711 637.041 208.437 642.275 216.243Z" fill="#EFEFEF"/>
<path d="M609.728 234.09C615.826 229.329 626.297 237.282 623.968 244.52C618.672 249.411 610.327 239.5 609.728 234.09Z" fill="#EFEFEF"/>
<path d="M596.534 233.885C602.667 231.669 614.719 233.554 618.271 240.03C614.374 234.46 602.659 232.566 596.534 233.885Z" fill="#E6E6E6"/>
<path d="M634.476 218.078C623.222 223.852 605.991 231.373 593.909 235.186C605.77 230.464 622.67 223.063 634.476 218.078Z" fill="#E6E6E6"/>
<path d="M605.571 229.014C610.53 224.799 615.618 213.592 609.82 208.247C601.682 209.277 601.195 223.098 605.164 229.134" fill="#EFEFEF"/>
<path d="M608.586 215.431C609.455 222.234 605.767 232.595 597.978 233.706C605.426 231.572 608.428 222.121 608.586 215.431Z" fill="#E6E6E6"/>
<path d="M68.7258 68.513C82.8289 68.2039 86.9804 86.6898 85.5016 98.0807C74.2202 95.9879 60.8577 75.297 68.7258 68.513Z" fill="#EFEFEF"/>
<path d="M96.2381 103.41C89.4875 96.8131 96.4368 83.3789 105.246 85.2031C112.107 90.5055 102.147 102.207 96.2381 103.41" fill="#EFEFEF"/>
<path d="M98.3113 118.6C94.7326 111.75 94.3802 97.5246 100.614 92.5756C95.4201 97.8326 95.702 111.626 98.3113 118.6Z" fill="#E6E6E6"/>
<path d="M72.4042 76.9277C81.1519 89.3251 93.0726 108.477 99.8121 122.104C92.1082 108.858 80.3926 90.0775 72.4042 76.9277Z" fill="#E6E6E6"/>
<path d="M90.3366 109.561C84.5676 104.104 69.7215 99.2715 65.0074 107.109C67.6854 116.913 84.5617 115.686 90.5626 110.041" fill="#EFEFEF"/>
<path d="M73.6602 107.203C81.4436 105.25 94.374 108.353 97.3493 117.662C93.0507 108.77 81.7585 106.584 73.6602 107.203V107.203Z" fill="#E6E6E6"/>
<path d="M320.33 421.399C315.437 409.337 329.462 400.759 339.431 398.964C341.255 409.461 328.818 426.152 320.33 421.399Z" fill="#EFEFEF"/>
<path d="M341.418 388.815C338.114 396.43 324.565 394.071 323.195 385.972C325.378 378.607 338.462 384.04 341.418 388.815Z" fill="#EFEFEF"/>
<path d="M353.76 382.437C349.194 387.672 337.221 391.977 330.84 387.578C337.122 390.942 348.756 386.799 353.76 382.437Z" fill="#E6E6E6"/>
<path d="M326.84 415.895C334.273 404.992 346.294 389.517 355.414 380.024C346.924 390.247 335.151 405.448 326.84 415.895Z" fill="#E6E6E6"/>
<path d="M348.209 391.351C345.689 397.857 346.378 411.068 354.238 413.232C361.193 408.156 355.036 394.778 348.518 391.036" fill="#EFEFEF"/>
<path d="M351.805 405.928C347.914 399.924 346.367 388.296 352.68 383.364C347.126 389.084 348.857 399.515 351.805 405.928Z" fill="#E6E6E6"/>
<path d="M426.242 166.732C428.412 166.467 430.152 164.895 432.131 163.981C437.67 161.259 446.109 164.983 446.529 171.282L442.859 175.213" fill="#33434B"/>
<path d="M449.478 186.818L443.579 221.626C442.58 227.542 439.87 236.042 430.422 234.057C420.064 231.138 422.043 219.434 423.353 213.086C410.615 210.079 416.714 193.972 418.784 180.932C423.213 160.354 454.537 164.324 449.468 186.828L449.478 186.818Z" fill="#F6D5BF"/>
<path d="M423.353 212.949C423.353 212.949 429.002 213.99 435.461 210.875C435.461 210.875 432.001 216.968 423.083 215.238L423.353 212.949Z" fill="#EEB197"/>
<path d="M419.604 186.229C419.784 186.386 421.013 185.934 422.673 186.13C424.343 186.307 425.513 187.044 425.703 186.926C425.143 185.433 420.434 184.794 419.594 186.229H419.604Z" fill="#33434B"/>
<path d="M433.311 187.733C433.491 187.89 434.711 187.448 436.371 187.645C438.03 187.821 439.2 188.549 439.39 188.431C438.82 186.966 434.151 186.328 433.311 187.733Z" fill="#33434B"/>
<path d="M433.001 189.914C432.801 191.103 434.811 191.447 434.971 190.219C435.171 189.029 433.161 188.686 433.001 189.914Z" fill="#33434B"/>
<path d="M420.054 188.518C419.854 189.707 421.863 190.051 422.023 188.823C422.223 187.634 420.214 187.29 420.054 188.518Z" fill="#33434B"/>
<path d="M427.752 196.714C428.092 196.528 425.233 196.331 424.833 195.663C425.603 193.353 430.052 185.502 429.602 185.433C429.452 185.364 427.832 188.234 425.972 191.86C425.443 193.265 424.353 194.277 424.353 195.771C424.593 196.803 427.902 196.724 427.752 196.724V196.714Z" fill="#33434B"/>
<path d="M434.981 181.787C435.081 181.993 440.29 183.133 440.47 182.986C440.28 181.276 435.871 180.303 434.981 181.787Z" fill="#33434B"/>
<path d="M420.333 182.013C420.453 182.19 425.653 182.887 425.833 182.76C425.413 181.266 421.173 180.735 420.333 182.013Z" fill="#33434B"/>
<path d="M448.039 193.305C457.197 191.575 453.967 205.608 446.759 201.972C446.769 201.795 448.039 193.305 448.039 193.305V193.305Z" fill="#F6D5BF"/>
<path d="M448.958 199.928C452.098 202.109 452.288 193.462 449.998 196.105C449.978 196.115 449.878 195.987 449.968 195.741C451.208 194.208 452.408 196.94 451.998 198.139C451.888 199.77 449.768 201.539 448.958 199.918V199.928Z" fill="#EEB197"/>
<path d="M417.074 178.888C429.162 184.381 436.021 163.322 445.479 178.514C439.49 196.242 451.078 202.522 450.748 180.362C449.878 165.101 428.022 160.895 419.564 172.648" fill="#33434B"/>
<path d="M417.614 187.262C418.194 184.824 418.464 181.749 419.044 179.312C429.752 181.837 432.961 168.099 442.789 174.988L442.7 174.88C443.889 175.695 444.909 176.737 445.699 177.926C444.609 182.977 442.6 189.984 445.729 194.445C447.779 195.772 449.318 192.244 451.208 193.63C453.068 190.573 454.447 187.242 455.267 183.773C454.417 186.358 458.107 188.176 459.706 185.955C459.087 185.257 458.657 184.392 458.487 183.488C459.756 184.677 462.076 184.5 463.136 183.124C462.486 182.486 461.836 181.847 461.186 181.208C462.116 181.257 463.036 181.306 463.966 181.346C458.037 178.84 454.947 167.883 447.109 171.312C445.899 160.06 429.922 160.375 422.573 166.959C418.184 169.652 415.135 175.97 408.796 174.909L409.126 178.663C411.085 180.55 415.254 178.889 415.254 178.889C415.254 178.889 412.875 181.218 410.645 181.159L411.235 184.382C411.235 184.382 414.605 184.962 416.084 182.407L417.594 187.262H417.614Z" fill="#33434B"/>
<path d="M445.479 178.515C436.341 165.632 431.831 180.087 421.653 179.881C417.484 178.545 416.284 184.451 412.835 184.421C411.395 184.5 410.395 184.421 412.805 184.234C416.264 183.979 417.274 178.112 421.653 179.429C431.541 179.675 436.571 164.718 445.479 178.515Z" fill="#526B77"/>
<path d="M455.187 183.833C454.907 186.457 450.358 187.891 450.608 184.069L451.068 184.186C448.698 187.606 445.559 182.889 446.129 180.383C445.679 177.042 445.859 177.032 446.479 180.354C446.289 184.304 450.148 187.262 451.448 181.966C450.048 186.299 452.968 187.616 455.187 183.813V183.833Z" fill="#526B77"/>
<path d="M452.928 190.476C449.458 192.716 444.649 187.066 444.339 184.078C445.529 186.722 449.248 191.802 452.928 190.476Z" fill="#526B77"/>
<path d="M452.638 191.605C449.948 192.529 444.769 189.404 444.389 186.633C445.559 189.06 449.908 191.684 452.638 191.605Z" fill="#526B77"/>
<path d="M456.617 168.993C453.938 168.099 448.779 169.367 446.839 171.381C448.149 168.797 454.228 167.313 456.617 168.993Z" fill="#526B77"/>
<path d="M448.259 163.726C449.578 164.512 448.458 171.44 446.979 171.784C447.939 170.693 448.818 165.013 448.259 163.726V163.726Z" fill="#526B77"/>
<path d="M412.345 174.712C423.573 178.781 429.072 160.326 442.35 171.784C444.399 172.698 446.609 172.187 447.479 171.096C446.489 172.659 444.509 172.865 442.22 172.098C434.971 166.536 430.472 168.001 423.433 173.012C420.294 174.349 414.964 177.435 412.335 174.703L412.345 174.712Z" fill="#526B77"/>
<path d="M447.179 171.273C440.76 162.812 433.571 167.686 426.022 164.944C432.931 166.477 442.799 162.979 447.179 171.273Z" fill="#526B77"/>
<path d="M428.432 201.118C428.392 200.951 429.652 200.814 430.692 199.86C431.392 199.31 431.861 198.16 432.321 197.826C432.371 199.29 429.972 201.61 428.422 201.128L428.432 201.118Z" fill="#33434B"/>
<path d="M589.313 369.986L605.68 360.867C605.68 360.867 620.607 374.163 623.797 372.767L606.95 340.938L580.854 354.116L589.313 369.986V369.986Z" fill="#D51F27"/>
<g opacity="0.6">
<path d="M599.071 351.747C598.691 350.037 601.351 349.349 601.801 351.069C602.231 352.976 599.271 353.496 599.051 351.61" fill="white"/>
</g>
<g opacity="0.6">
<path d="M606.96 340.938L604.38 342.362L621.497 372.345C621.497 372.345 622.877 373.445 623.807 372.758L606.96 340.928V340.938Z" fill="white"/>
</g>
<path d="M605.79 361.476C605.95 361.387 605.61 360.572 605.71 359.55C605.79 358.518 606.26 357.781 606.12 357.663C605.09 357.506 604.74 361.456 605.79 361.466V361.476Z" fill="#33434B"/>
<path d="M608.959 364.09C609.129 364.05 609.039 363.235 609.429 362.37C609.789 361.486 610.449 360.984 610.359 360.837C609.439 360.346 607.96 363.785 608.959 364.1V364.09Z" fill="#33434B"/>
<path d="M614.029 363.912C613.449 363.264 611.199 366.143 611.979 366.526C612.009 366.418 613.929 363.961 614.029 363.912Z" fill="#33434B"/>
<path d="M601.831 363.146C601.731 363.087 600.261 359.854 600.281 359.746C599.421 359.972 601.091 363.628 601.831 363.146Z" fill="#33434B"/>
<g opacity="0.3">
<path d="M592.552 368.177L595.472 366.555L587.053 350.989L584.364 352.336L592.552 368.177Z" fill="black"/>
</g>
<path d="M598.491 364.925C596.652 359.372 589.433 360.532 596.772 364.551C599.091 365.131 599.131 364.915 596.942 364.158C596.312 363.844 593.682 362.291 594.482 361.583C595.872 361.967 597.871 364.266 598.491 364.934V364.925Z" fill="#33434B"/>
<path d="M598.611 364.601C592.642 364.817 592.882 372.816 598.001 366.654C598.681 364.404 598.441 364.355 597.622 366.448C597.192 367.205 595.612 368.59 594.662 368.178C594.542 366.537 597.751 364.945 598.611 364.601V364.601Z" fill="#33434B"/>
<path d="M542.662 395.054L561.228 392.057C561.228 392.057 570.557 409.598 574.046 409.372L569.427 373.778L540.302 377.277L542.652 395.044L542.662 395.054Z" fill="#D51F27"/>
<g opacity="0.6">
<path d="M558.229 381.257C558.469 379.517 561.208 379.783 561.028 381.551C560.758 383.487 557.799 382.967 558.259 381.119" fill="white"/>
</g>
<g opacity="0.6">
<path d="M569.437 373.789L566.517 374.251L572.036 408.203C572.036 408.203 572.946 409.697 574.056 409.383L569.437 373.789V373.789Z" fill="white"/>
</g>
<path d="M561.118 392.666C561.298 392.637 561.258 391.762 561.718 390.829C562.148 389.895 562.858 389.355 562.768 389.207C561.848 388.706 560.138 392.293 561.118 392.666Z" fill="#33434B"/>
<path d="M563.178 396.194C563.358 396.214 563.558 395.418 564.228 394.739C564.878 394.032 565.667 393.786 565.637 393.609C564.938 392.833 562.348 395.565 563.178 396.194Z" fill="#33434B"/>
<path d="M567.997 397.746C567.677 396.94 564.558 398.876 565.157 399.505C565.217 399.407 567.887 397.766 567.997 397.746Z" fill="#33434B"/>
<path d="M556.809 392.883C556.739 392.794 556.499 389.257 556.549 389.168C555.659 389.09 555.949 393.089 556.809 392.883Z" fill="#33434B"/>
<g opacity="0.3">
<path d="M546.341 394.465L549.65 393.934L547.221 376.462L544.221 376.816L546.341 394.465Z" fill="black"/>
</g>
<path d="M553.06 393.422C553.28 387.585 546.101 386.219 551.58 392.479C553.55 393.815 553.669 393.629 551.88 392.164C551.26 391.476 549.94 389.914 550.27 388.902C551.65 389.334 552.66 392.646 553.06 393.422Z" fill="#33434B"/>
<path d="M553.28 393.157C552.17 392.499 547.911 393.108 547.701 395.241C548.371 396.882 551.16 395.712 551.99 394.877C553.42 392.99 553.21 392.863 551.7 394.553C551.03 395.123 549.06 395.88 548.321 395.172C548.79 393.6 552.36 393.187 553.28 393.157V393.157Z" fill="#33434B"/>
<path d="M466.445 296.596C465.865 296.822 475.244 305.686 476.743 311.69C478.563 318.933 483.492 327.217 483.492 327.217L518.106 359.803L583.294 350.428L594.302 370.181C585.304 370.485 510.017 398.139 503.419 388.832L452.738 351.784L423.663 316.407L466.435 296.596H466.445Z" fill="#33434B"/>
<path d="M418.824 319.099L423.023 334.262C471.764 433.28 453.338 407.68 547.401 395.573L545.751 375.015L482.013 380.42L439.38 306.815L418.834 319.099H418.824Z" fill="#33434B"/>
<path d="M589.263 371.517C573.166 376.224 556.149 380.853 537.492 386.1C515.556 392.498 508.208 397.156 489.891 379.742C471.814 364.756 452.728 348.305 440.09 331.01C453.188 347.942 472.034 364.471 490.191 379.378C508.388 396.674 515.606 391.947 537.372 385.668C556.069 380.568 573.056 375.752 589.263 371.517V371.517Z" fill="#526B77"/>
<path d="M440.11 320.054C437.741 322.845 443.48 322.894 441.22 320.309C440.66 319.926 440.19 320.113 440.17 320.034C440.8 319.484 442.13 320.172 442.22 321.164C441.88 324.614 437.131 321.597 440.11 320.054Z" fill="#526B77"/>
<path d="M473.314 311.188C469.205 316.112 458.497 316.927 453.668 312.672C458.337 316.141 469.245 315.316 473.314 311.188Z" fill="#526B77"/>
<path d="M532.143 256.788C532.143 256.788 486.822 240.062 484.072 237.664C472.184 226.265 466.305 215.357 444.989 219.121V214.787L421.114 215.17L420.454 220.949L416.384 222.462C416.384 222.462 406.826 242.077 406.826 251.078C406.826 260.08 402.107 312.507 411.405 322.59C420.594 324.378 439.08 322.079 471.894 301.992L462.126 290.898C462.066 290.966 458.607 266.045 462.956 249.988C478.863 257.81 518.026 274.879 532.133 267.254C532.753 266.536 532.133 256.778 532.133 256.778L532.143 256.788Z" fill="#526B77"/>
<path d="M421.034 221.597C400.637 220.546 392.939 261.239 389.589 268.58L375.952 254.832L362.994 261.927C365.994 264.423 382.291 292.706 391.599 292.804C411.345 293.364 409.876 260.316 413.995 247.993" fill="#526B77"/>
<path d="M366.913 259.717L352.916 251.551C352.916 251.551 348.687 241.704 350.306 241.262C351.926 240.82 353.296 246.736 353.296 246.736L355.305 247.679C355.305 247.679 352.576 242.687 353.526 242.205C355.885 241.439 358.265 247.875 358.905 248.829L359.855 247.561L359.105 244.21C359.105 244.21 358.115 241.969 359.225 241.95C360.744 240.987 362.424 247.109 362.564 246.942C362.564 246.942 366.643 249.33 367.513 249.065C371.063 248.18 375.042 250.116 374.462 255.403" fill="#F6D5BF"/>
<path d="M461.596 222.885C459.767 226.963 459.257 235.896 460.616 240.151C458.517 236.141 459.057 226.639 461.596 222.885V222.885Z" fill="#33434B"/>
<path d="M424.133 221.667C423.663 221.824 423.943 214.827 424.403 215.024C424.573 214.896 424.303 221.814 424.133 221.667Z" fill="#33434B"/>
<path d="M429.722 222.482C429.392 222.649 430.092 214.797 430.382 215.023C430.712 214.856 430.012 222.708 429.722 222.482V222.482Z" fill="#33434B"/>
<path d="M437.161 222.295C437.181 222.442 437.721 214.875 437.681 215.023C438.35 214.875 437.801 222.54 437.161 222.295Z" fill="#33434B"/>
<path d="M442.62 220.948C442.66 221.037 442.56 214.757 442.52 214.846C443.189 214.659 443.289 221.115 442.62 220.948Z" fill="#33434B"/>
<path d="M407.326 233.606C407.676 232.014 406.516 292.529 406.236 290.907C405.896 292.509 407.046 231.994 407.326 233.606Z" fill="#33434B"/>
<path d="M406.426 263.775C403.307 261.711 396.248 258.164 392.279 259.932C395.958 257.387 403.817 261.092 406.426 263.775Z" fill="#FBFBFB"/>
<path d="M461.076 254.783C445.779 263.962 425.493 267.067 408.086 262.891C425.723 266.281 445.329 263.284 461.076 254.783Z" fill="#FBFBFB"/>
<path d="M487.382 240.554C483.462 242.952 478.173 250.341 477.213 254.773C477.733 249.604 482.612 242.784 487.382 240.554Z" fill="#FBFBFB"/>
<path d="M492.451 242.097C487.641 243.964 481.323 251.717 480.523 256.739C480.883 251 486.832 243.698 492.451 242.097Z" fill="#FBFBFB"/>
<path d="M461.426 250.744C445.259 257.515 425.083 259.824 407.756 256.876C425.233 259.058 444.919 256.807 461.426 250.744Z" fill="#FBFBFB"/>
<path d="M406.926 256.315C406.826 256.443 404.736 254.655 401.597 253.475C398.478 252.267 395.708 252.178 395.718 252.031C398.777 251.48 405.036 253.878 406.926 256.315Z" fill="#FBFBFB"/>
<path d="M547.061 253.093C543.751 254.252 535.683 257.083 532.143 256.788V267.263L537.282 268.993L551.07 268.256C551.41 268.344 561.578 273.936 562.978 271.106L553.199 265.298C555.539 263.755 564.467 271.184 565.607 267.273L557.959 262.537C558.539 262.615 566.677 267.037 566.857 263.48C564.487 261.239 558.868 256.807 556.199 254.822L547.051 253.093H547.061Z" fill="#F6D5BF"/>
<path d="M541.562 257.417C544.221 258.636 548.06 260.129 550.73 262.222C553.499 268.158 544.731 265.75 542.191 263.844L542.451 263.785C541.002 265.78 538.042 266.596 536.062 265.544C537.652 266.143 541.122 265.456 542.221 263.402C544.411 264.267 550.34 267.942 550.84 263.647C549.43 260.296 543.951 259.471 541.562 257.407V257.417Z" fill="#EEB197"/>
<path d="M558.439 262.557C558.669 262.842 554.589 260.571 553.17 259.127L553.47 259.156C552.14 259.893 550.4 260.08 549.5 259.795C550.36 259.589 552.25 259.471 553.36 258.665C554.749 259.982 558.799 262.606 558.429 262.557H558.439Z" fill="#EEB197"/>
<path d="M575.326 337.86C533.673 332.947 565.557 295.83 544.501 287.566C533.303 283.438 528.684 287.448 521.695 293.521C489.111 329.694 419.104 285.364 392.909 251.088L396.798 248.021C400.787 257.092 480.463 331.433 518.396 289.845C525.515 283.664 532.233 277.817 546.241 282.976C558.629 287.546 557.849 298.139 557.169 307.475C556.369 318.413 555.679 327.856 570.856 332.318C592.872 338.126 619.008 298.169 634.665 282.917L638.424 285.856C622.627 302.571 598.611 337.664 575.316 337.85L575.326 337.86Z" fill="#D51F27"/>
<path d="M504.848 299.122C500.539 302.336 492.121 304.045 486.872 302.768C491.531 303.377 500.819 301.49 504.848 299.122Z" fill="white"/>
<path d="M534.083 284.342C531.194 283.722 525.895 285.521 524.015 287.751C525.235 284.99 531.394 282.907 534.083 284.342Z" fill="white"/>
<path d="M565.927 330.755C561.638 330.47 555.559 324.004 555.609 319.788C556.389 323.847 561.878 329.684 565.927 330.755Z" fill="white"/>
<path d="M635.545 284.696C635.985 284.696 627.666 292.853 627.666 292.42C627.226 292.42 635.545 284.264 635.545 284.696Z" fill="white"/>
<path d="M277.61 138.23C277.47 138.564 266.442 146.789 266.442 146.789L266.232 153.786L271.931 154.572L280.029 150.042L285.508 149.767C286.488 150.229 290.957 153.157 291.717 150.779L286.718 147.202C286.718 147.202 292.267 150.239 292.797 149.836C293.327 149.433 293.567 148.067 292.257 147.222C292.907 147.9 296.416 147.831 295.767 145.826L288.458 139.37C286.538 137.218 280.089 138.456 277.6 138.23H277.61Z" fill="#C5927F"/>
<path d="M278.51 141.276C278.51 142.023 278.22 143.291 278.07 144.411L277.92 144.244C280.169 144.244 287.018 142.632 285.938 147.045C284.599 147.86 282.939 147.684 281.429 147.782C275.14 148.863 274.32 157.019 266.252 152.381C277.41 156.155 272.711 147.241 285.628 146.681L285.538 146.78C286.038 142.967 279.76 144.785 277.74 144.529C278.01 143.419 278.23 142.004 278.5 141.276H278.51Z" fill="#B16953"/>
<path d="M292.677 147.399C286.398 143.694 288.978 141.925 279.83 142.23C287.088 140.726 288.108 143.448 292.677 147.399Z" fill="#B16953"/>
<path d="M293.187 355.407L292.917 372.595C292.917 372.595 310.604 378.638 310.874 381.822L276.94 382.5L276.24 355.702L293.187 355.407Z" fill="#D51F27"/>
<g opacity="0.6">
<path d="M282.389 371.366C280.799 371.818 281.419 374.255 283.039 373.852C284.808 373.351 283.919 370.746 282.259 371.405" fill="white"/>
</g>
<g opacity="0.6">
<path d="M276.94 382.51L276.98 379.808L309.504 380.161C309.504 380.161 311.024 380.78 310.884 381.822L276.95 382.5L276.94 382.51Z" fill="white"/>
</g>
<path d="M293.457 372.418C293.457 372.585 292.627 372.673 291.827 373.214C291.007 373.735 290.607 374.442 290.447 374.383C289.858 373.626 292.977 371.582 293.457 372.418Z" fill="#33434B"/>
<path d="M297.046 373.793C297.086 373.951 296.376 374.245 295.826 374.943C295.257 375.631 295.127 376.378 294.967 376.368C294.147 375.847 296.346 373.125 297.046 373.793V373.793Z" fill="#33434B"/>
<path d="M299.156 377.941C298.356 377.764 299.746 374.678 300.416 375.13C300.336 375.199 299.156 377.833 299.156 377.941Z" fill="#33434B"/>
<path d="M293.077 368.497C292.987 368.448 289.637 368.703 289.557 368.772C289.357 367.986 293.147 367.691 293.077 368.497Z" fill="#33434B"/>
<g opacity="0.3">
<path d="M293.127 358.818L293.087 361.884L276.4 362.071L276.32 359.31L293.127 358.818Z" fill="black"/>
</g>
<path d="M293.067 365.028C284.309 365.234 288.458 358.925 293.017 365.156C288.218 361.107 286.318 363.839 293.067 365.028Z" fill="#33434B"/>
<path d="M292.857 365.264C290.937 363.476 294.657 356.272 294.976 362.12C295.096 363.79 291.377 366.542 293.947 363.643C294.387 362.965 294.827 361.078 294.067 360.498C292.657 361.137 292.767 364.419 292.857 365.254V365.264Z" fill="#33434B"/>
<path d="M231.438 258.228C232.268 259.447 269.101 297.006 269.101 297.006C262.123 312.955 269.561 356.381 272.791 368.39L299.496 366.296L292.227 284.702L263.073 246.839L231.438 258.219V258.228Z" fill="#33434B"/>
<path d="M302.415 336.412L305.695 353.305C305.695 353.305 324.261 355.703 325.171 358.769L292.087 366.188L285.878 340.078L302.415 336.412Z" fill="#D51F27"/>
<g opacity="0.6">
<path d="M295.136 354.19C293.667 354.956 294.777 357.216 296.286 356.499C297.916 355.654 296.516 353.276 295.016 354.258" fill="white"/>
</g>
<g opacity="0.6">
<path d="M292.087 366.189L291.567 363.535L323.481 357.413C323.481 357.413 325.101 357.708 325.171 358.769L292.087 366.189Z" fill="white"/>
</g>
<path d="M306.195 353.01C306.225 353.167 305.435 353.423 304.755 354.111C304.065 354.779 303.815 355.565 303.645 355.536C302.905 354.907 305.545 352.293 306.185 353.01H306.195Z" fill="#33434B"/>
<path d="M309.994 353.649C310.064 353.796 309.434 354.219 309.034 355.015C308.614 355.801 308.644 356.557 308.484 356.587C307.574 356.233 309.164 353.138 309.994 353.649Z" fill="#33434B"/>
<path d="M312.913 357.285C312.093 357.265 312.813 353.973 313.563 354.288C313.503 354.376 312.893 357.187 312.913 357.285Z" fill="#33434B"/>
<path d="M305.015 349.246C304.915 349.216 301.695 350.14 301.625 350.209C301.265 349.472 304.915 348.44 305.015 349.246Z" fill="#33434B"/>
<g opacity="0.3">
<path d="M303.065 339.753L303.655 342.77L287.358 346.268L286.708 343.586L303.065 339.753Z" fill="black"/>
</g>
<path d="M304.285 345.856C295.756 347.802 298.516 340.795 304.255 345.994C298.726 342.987 297.416 346.033 304.285 345.856Z" fill="#33434B"/>
<path d="M304.135 346.131C303.195 345.394 302.375 341.542 304.205 340.677C305.875 340.726 305.735 343.487 305.255 344.47C304.045 346.298 303.865 346.16 304.875 344.323C305.165 343.566 305.215 341.63 304.345 341.217C303.095 342.121 303.875 345.315 304.145 346.121L304.135 346.131Z" fill="#33434B"/>
<path d="M165.55 232.521C161.091 252.489 182.207 275.406 210.762 272.045C228.959 271.229 268.241 272.143 268.241 272.143C268.241 272.143 269.901 292.751 274.45 309.653C279 326.556 288.078 351.87 288.078 351.87L305.875 350.199C305.875 350.199 301.066 258.248 299.826 250.121C298.586 241.994 284.789 237.876 277.34 235.429C247.565 227.548 214.431 222.477 188.426 219.225L165.55 232.521V232.521Z" fill="#33434B"/>
<path d="M305.875 350.189C299.776 350.7 295.477 350.887 287.268 351.447C283.319 339.016 277.19 319.715 272.461 304.749C268.951 294.588 266.782 282.962 268.831 272.29L269.061 272.585C243.076 271.366 216.851 273.892 192.425 271.209C217.021 273.282 243.246 271.012 269.361 272.113C267.242 282.756 269.411 294.43 272.911 304.601C277.6 319.509 283.639 338.858 287.508 351.25L287.358 351.142C295.587 350.72 299.746 350.395 305.865 350.179L305.875 350.189Z" fill="#526B77"/>
<path d="M277.61 261.539C277.56 261.146 269.011 272.339 269.411 272.271C270.451 269.116 274.82 263.407 277.61 261.539Z" fill="#526B77"/>
<path d="M282.459 263.24C280.009 263.486 270.621 269.893 269.581 271.996C271.341 268.409 278.42 263.594 282.459 263.24Z" fill="#526B77"/>
<path d="M203.033 139.232C240.766 161.353 226.279 158.149 266.552 144.706L273.171 154.739C273.171 154.739 244.846 176.182 235.567 176.497C226.289 176.821 211.532 169.49 211.532 169.49L203.033 139.232V139.232Z" fill="#526B77"/>
<path d="M146.224 148.254C141.934 154.798 95.7227 191.031 119.948 205.368C123.718 206.941 166.27 201.791 166.27 201.791L168.79 185.518C161.831 184.152 152.922 183.13 143.304 182.226C147.613 177.794 152.402 174.433 158.251 173.45L168.43 162.572C168.43 162.572 155.812 146.141 146.214 148.263L146.224 148.254Z" fill="#526B77"/>
<path d="M144.464 158.415C144.464 158.415 142.834 151.084 146.424 148.146C154.172 141.601 166.86 136.815 172.189 133.602L203.033 139.242C205.533 144.912 227.569 171.662 214.701 181.803C210.582 192.23 223.42 217.682 227.189 224.571C227.149 223.814 167.12 216.561 165.26 238.21L163.94 200.357L157.012 177.175L144.454 158.415H144.464Z" fill="#526B77"/>
<path d="M167.83 185.301C159.961 183.916 152.043 183.483 142.364 182.461C148.303 177.558 155.352 171.671 163.111 173.745C157.372 172.055 148.003 177.774 143.144 182.471L143.014 182.039C151.213 182.963 162.551 183.641 167.83 185.301V185.301Z" fill="#33434B"/>
<path d="M131.316 182.953C133.236 179.985 140.585 179.612 142.804 182.373C140.075 180.339 133.826 180.654 131.316 182.953V182.953Z" fill="#33434B"/>
<path d="M163.63 162.208C162.321 156.125 156.092 146.77 148.023 147.969C156.182 146.013 163.011 155.526 163.63 162.208V162.208Z" fill="#33434B"/>
<path d="M213.771 182.776C227.059 167.397 208.742 159.467 205.293 146.377C205.153 144.834 205.173 143.773 205.483 146.348C209.302 159.142 227.999 167.613 213.761 182.776H213.771Z" fill="#33434B"/>
<g opacity="0.3">
<path d="M160.031 183.946C158.881 176.025 166.6 179.749 168.39 176.674C166.73 172.3 158.841 173.047 155.012 174.315C157.102 177.273 158.421 180.221 158.661 183.808" fill="black"/>
</g>
<g opacity="0.3">
<path d="M206.783 150.317C205.183 147.183 210.962 155.988 213.651 158.287C218.68 162.591 225.419 167.544 224.979 174.767L218.56 172.546C221.1 166.915 208.392 153.659 206.783 150.317V150.317Z" fill="black"/>
</g>
<g opacity="0.3">
<path d="M142.864 182.039C139.975 179.199 134.966 178.403 131.066 179.395C128.937 179.592 125.587 184.446 129.327 184.201C133.096 181.449 138.115 180.024 142.604 182.088" fill="black"/>
</g>
<path d="M153.372 157.874C153.412 160.557 149.123 160.557 149.163 157.874C149.123 155.192 153.412 155.192 153.372 157.874Z" fill="#33434B"/>
<path d="M164.7 144.175C164.74 146.858 160.451 146.858 160.491 144.175C160.451 141.492 164.74 141.492 164.7 144.175Z" fill="#33434B"/>
<path d="M186.756 145.04C186.796 147.723 182.507 147.723 182.547 145.04C182.507 142.358 186.796 142.358 186.756 145.04Z" fill="#33434B"/>
<path d="M203.813 143.733C203.853 146.416 199.564 146.416 199.604 143.733C199.564 141.05 203.853 141.05 203.813 143.733Z" fill="#33434B"/>
<path d="M232.028 168.281C232.068 170.963 227.779 170.963 227.819 168.281C227.779 165.598 232.068 165.598 232.028 168.281Z" fill="#33434B"/>
<path d="M214.811 166.217C214.851 168.9 210.562 168.9 210.602 166.217C210.562 163.534 214.851 163.534 214.811 166.217Z" fill="#33434B"/>
<path d="M218.44 152.441C218.48 155.124 214.191 155.124 214.231 152.441C214.191 149.758 218.48 149.758 218.44 152.441Z" fill="#33434B"/>
<path d="M244.216 158.081C244.256 160.764 239.967 160.764 240.007 158.081C239.967 155.399 244.256 155.399 244.216 158.081Z" fill="#33434B"/>
<path d="M258.823 159.949C258.863 162.631 254.574 162.631 254.614 159.949C254.574 157.266 258.863 157.266 258.823 159.949Z" fill="#33434B"/>
<path d="M206.003 182.098C206.043 184.781 201.753 184.781 201.793 182.098C201.753 179.415 206.043 179.415 206.003 182.098Z" fill="#33434B"/>
<path d="M213.661 193.851C213.701 196.534 209.412 196.534 209.452 193.851C209.412 191.168 213.701 191.168 213.661 193.851Z" fill="#33434B"/>
<path d="M197.934 201.752C197.974 204.435 193.685 204.435 193.725 201.752C193.685 199.07 197.974 199.07 197.934 201.752Z" fill="#33434B"/>
<path d="M187.746 214.763C187.786 217.446 183.497 217.446 183.537 214.763C183.497 212.08 187.786 212.08 187.746 214.763Z" fill="#33434B"/>
<path d="M212.701 212.561C212.741 215.244 208.452 215.244 208.492 212.561C208.452 209.878 212.741 209.878 212.701 212.561Z" fill="#33434B"/>
<path d="M171.869 224.255C171.909 226.938 167.62 226.938 167.66 224.255C167.62 221.572 171.909 221.572 171.869 224.255Z" fill="#33434B"/>
<path d="M180.647 191.778C180.687 194.46 176.398 194.46 176.438 191.778C176.398 189.095 180.687 189.095 180.647 191.778Z" fill="#33434B"/>
<path d="M173.569 206.881C173.609 209.564 169.319 209.564 169.359 206.881C169.319 204.198 173.609 204.198 173.569 206.881Z" fill="#33434B"/>
<path d="M199.264 160.734C199.304 163.417 195.015 163.417 195.055 160.734C195.015 158.051 199.304 158.051 199.264 160.734Z" fill="#33434B"/>
<path d="M186.136 177.263C186.176 179.946 181.887 179.946 181.927 177.263C181.887 174.58 186.176 174.58 186.136 177.263Z" fill="#33434B"/>
<path d="M173.569 164.144C173.609 166.827 169.319 166.827 169.359 164.144C169.319 161.461 173.609 161.461 173.569 164.144Z" fill="#33434B"/>
<path d="M121.688 196.18C121.728 198.863 117.439 198.863 117.479 196.18C117.439 193.497 121.728 193.497 121.688 196.18Z" fill="#33434B"/>
<path d="M131.416 169.991C131.456 172.673 127.167 172.673 127.207 169.991C127.167 167.308 131.456 167.308 131.416 169.991Z" fill="#33434B"/>
<path d="M150.133 199.109C150.173 201.792 145.884 201.792 145.924 199.109C145.884 196.426 150.173 196.426 150.133 199.109Z" fill="#33434B"/>
<path d="M162.961 189.439C163.001 192.122 158.711 192.122 158.751 189.439C158.711 186.756 163.001 186.756 162.961 189.439Z" fill="#33434B"/>
<path d="M137.355 187.189C137.395 189.872 133.106 189.872 133.146 187.189C133.106 184.506 137.395 184.506 137.355 187.189Z" fill="#33434B"/>
<path d="M148.303 173.509C148.343 176.192 144.054 176.192 144.094 173.509C144.054 170.826 148.343 170.826 148.303 173.509Z" fill="#33434B"/>
<path d="M139.435 292.966C128.037 293.084 113.36 288.927 105.471 283.051C79.1857 292.308 30.3845 283.641 12.9977 251.87C43.3422 274.914 71.1172 287.277 101.102 279.297C90.9136 271.003 88.524 243.949 100.682 238.682C128.117 228.403 147.013 267.613 111.06 280.83C151.673 301.732 211.432 271.504 228.719 234.26C259.713 165.932 199.864 111.294 134.486 126.673C94.5729 131.95 60.6091 179.867 88.1441 214.271C109.85 233.935 176.408 194.558 190.386 190.176L191.475 194.205C174.698 199.934 108.56 241.021 84.4347 217.544C69.7574 202.056 71.0072 171.848 82.6751 154.307C128.857 90.6767 239.077 117.878 241.996 194.981C245.976 245.197 196.524 290.903 139.435 292.966ZM108.73 241.561C91.4735 242.121 96.1426 270.551 106.341 277.499C116.919 272.644 125.347 268.929 126.037 258.09C126.437 249.659 117.359 241.453 108.72 241.561H108.73Z" fill="#D51F27"/>
<path d="M109.5 285.586C106.291 284.407 100.402 279.641 98.7921 276.644C101.032 279.228 106.611 283.739 109.5 285.586V285.586Z" fill="#33434B"/>
<path d="M114.729 282.727C110.69 282.491 104.111 276.998 102.552 273.489C104.791 276.604 110.87 281.734 114.729 282.727Z" fill="#33434B"/>
<path d="M94.7729 265.794C92.3733 259.977 93.0732 250.1 96.2726 244.666C93.903 249.609 93.1232 260.576 94.7729 265.794Z" fill="white"/>
<path d="M82.3251 283.385C78.3558 284.653 69.5574 283.425 66.108 281.125C69.8973 282.746 78.2258 283.916 82.3251 283.385Z" fill="white"/>
<path d="M220.17 250.817C218.031 254.571 211.512 261.136 207.752 263.337C211.062 260.556 217.421 254.149 220.17 250.817Z" fill="white"/>
<path d="M77.5659 200.748C73.4467 190.44 73.8266 176.102 78.4958 166.02C74.5665 176.436 74.1966 190.145 77.5659 200.748Z" fill="white"/>
<path d="M83.6049 156.645C83.9549 156.675 80.9454 161.932 80.7455 161.657C80.4055 161.628 83.405 156.37 83.6049 156.645Z" fill="white"/>
<path d="M204.643 113.31C201.734 121.918 218.491 124.188 201.704 133.347C200.594 136.423 201.884 140.973 197.894 142.643C187.186 146.063 188.186 128.935 193.585 124.188C196.815 120.699 202.433 118.243 202.873 113.005" fill="#33434B"/>
<path d="M204.303 90.9326C200.124 82.6778 187.596 80.9778 179.388 83.6507C166.28 87.6405 165.08 102.578 155.712 107.717C141.145 107.973 144.574 113.063 136.015 120.099C129.727 121.18 120.318 120.197 118.529 128.167C118.059 132.383 118.789 136.589 115.709 139.94C113.28 146.269 121.028 149.433 125.327 144.971C129.007 143.625 131.486 148.391 134.876 148.745C138.505 149.138 141.304 144.863 144.944 145.099C150.253 146.318 152.383 151.693 157.542 145.541C160.141 143.124 161.571 153.285 167.56 150.632C173.139 148.165 167.61 138.78 169.659 138.997C171.699 139.213 177.058 138.879 178.198 137.198" fill="#33434B"/>
<path d="M205.003 101.39C209.772 88.988 194.255 79.1413 183.047 82.4137C175.928 84.0647 174.129 90.6881 173.119 96.7808C169.719 104.279 180.847 99.0312 183.257 96.6433" fill="#33434B"/>
<path d="M191.095 138.457C191.555 134.831 191.725 133.347 191.725 133.386C191.725 133.386 199.654 132.983 202.423 123.186C203.873 114.695 209.732 91.69 195.805 89.5674L176.308 92.1617C174.438 92.1519 172.879 93.5375 172.699 95.3653L169.649 139.007C169.649 139.007 178.458 149.247 186.086 147.871C193.715 146.495 191.105 138.467 191.105 138.467L191.095 138.457Z" fill="#C5927F"/>
<path d="M201.574 110.157C201.484 111.739 198.814 111.611 198.964 109.999C199.054 108.417 201.724 108.545 201.574 110.157Z" fill="#33434B"/>
<path d="M202.543 107.474C201.114 106.678 198.954 106.452 197.414 106.874C198.034 105.223 202.373 105.675 202.543 107.474Z" fill="#33434B"/>
<path d="M188.776 108.859C188.686 110.441 186.016 110.313 186.166 108.702C186.256 107.119 188.926 107.247 188.776 108.859Z" fill="#33434B"/>
<path d="M188.736 106.195C187.316 105.399 185.136 105.173 183.607 105.596C184.227 103.945 188.566 104.397 188.736 106.195Z" fill="#33434B"/>
<path d="M192.645 116.976C192.355 116.711 195.225 117.133 195.764 116.563C195.515 114.116 192.865 105.4 193.325 105.429C193.485 105.39 194.455 108.584 195.485 112.554C195.704 114.057 196.544 115.286 196.214 116.76C195.744 117.733 192.495 116.937 192.645 116.966V116.976Z" fill="#33434B"/>
<path d="M191.735 133.387C191.735 133.387 184.856 133.063 178.548 128.307C178.548 128.307 181.167 135.598 191.445 135.795L191.745 133.387H191.735Z" fill="#B16953"/>
<path d="M191.665 120.228C190.745 118.283 186.636 118.941 187.516 121.349C188.336 122.764 191.665 121.703 191.715 120.287" fill="#B16953"/>
<path d="M189.406 101.193C189.246 101.399 183.117 101.37 182.957 101.173C183.627 99.355 188.756 99.3747 189.406 101.193Z" fill="#33434B"/>
<path d="M202.833 101.409C202.463 101.537 198.424 100.967 198.104 100.741C198.434 98.9816 203.023 99.6302 202.833 101.409Z" fill="#33434B"/>
<path d="M173.649 112.405C173.659 108.062 166.83 107.757 166.15 113.82C165.32 120.621 172.439 120.041 172.469 119.844C172.499 119.697 173.359 114.98 173.649 112.405Z" fill="#C5927F"/>
<path d="M170.669 117.025C168.44 118.086 167.77 114.116 168.909 112.622C169.319 111.63 170.709 111.551 170.639 112.573C170.659 112.593 170.799 112.475 170.779 112.19C169.869 110.175 167.78 112.809 167.88 114.234C167.53 116.032 169.309 118.548 170.669 117.025V117.025Z" fill="#B16953"/>
<path d="M196.894 88.4965C195.045 95.3656 189.216 93.9996 184.717 96.702C183.517 98.1073 183.927 100.338 182.797 101.802C181.227 103.817 177.528 103.375 176.278 105.596C175.788 111.059 170.329 111.787 168.59 106.529C165.47 95.2673 175.858 81.2638 187.636 81.8042" fill="#33434B"/>
<path d="M203.863 115.334C207.542 110.361 215.061 104.838 210.092 98.3133C207.023 94.7755 203.473 85.4988 197.774 87.3463C196.584 88.2504 197.374 89.5869 198.594 89.9505C206.993 94.7166 204.673 106.165 203.993 114.076" fill="#33434B"/>
<path d="M187.616 82.0001C169.799 80.6538 170.479 92.0433 160.441 98.6078C154.722 99.7674 146.634 97.1338 143.894 104.258C142.164 112.837 139.135 111.069 132.996 114.842C124.478 137.503 156.932 114.292 163.83 110.371C176.148 105.497 176.628 89.8028 187.496 83.8083" fill="#33434B"/>
<path d="M118.959 146.8C115.999 145.945 114.729 141.759 116.639 138.762C121.118 131.49 132.986 135.371 138.315 128.797C140.485 126.026 139.945 122.272 140.945 118.98C144.814 106.971 155.412 110.745 164.73 109.448C168.17 108.376 168.89 104.603 170.519 101.92C176.188 93.4688 190.866 97.1539 195.145 87.8379C191.355 97.4094 176.428 93.8029 170.889 102.146C169.309 104.849 168.43 108.809 164.9 109.88C155.902 111.295 145.054 107.423 141.414 119.117C140.415 122.4 140.925 126.252 138.685 129.072C133.356 135.774 121.488 131.784 116.889 138.899C114.939 141.779 116.309 145.827 118.979 146.8H118.959Z" fill="#526B77"/>
<path d="M119.578 125.927C121.198 123.833 124.607 124.305 127.327 125.17C140.105 129.454 136.395 109.653 146.474 106.528C149.453 105.093 152.892 105.742 156.092 105.457C163.36 105.231 162.841 95.6003 168.939 93.3598C177.368 89.1833 190.795 93.6546 195.085 83.6113C191.315 93.9494 177.438 89.596 169.149 93.7528C164.56 95.62 164 100.887 160.761 104.13C156.872 107.579 151.023 104.818 146.683 106.96C136.815 110.174 140.145 130.113 127.257 125.435C124.527 124.502 121.348 124.089 119.588 125.936L119.578 125.927Z" fill="#526B77"/>
<path d="M150.003 146.564C152.502 145.62 150.963 142.495 148.713 141.817C142.344 140.146 142.814 131.617 148.223 128.806C154.402 124.915 163.261 126.497 168.23 121.632C170.079 119.578 169.469 120.492 168.37 121.77C163.62 126.86 154.572 125.396 148.493 129.219C143.374 131.902 142.834 139.842 148.863 141.522C151.213 142.19 152.832 145.944 150.003 146.573V146.564Z" fill="#526B77"/>
<path d="M162.561 197.89C161.321 197.153 161.741 193.969 163.141 193.635C163.88 191.483 162.381 186.392 166.99 186.255C166.99 186.255 168.34 182.855 169.109 182.943C169.879 183.032 178.448 184.555 178.448 184.555C178.548 185.144 188.596 193.743 182.967 193.35C181.907 192.977 180.897 192.308 180.897 192.308L184.477 196.17C184.477 196.17 183.787 199.128 180.847 197.035L182.287 198.833C181.277 203.098 175.918 198.48 172.859 196.848H170.069L176.418 200.651C177.668 205.192 168.35 199.905 168.41 200.003C164.9 201.899 163.52 203.098 162.561 197.88V197.89Z" fill="#C5927F"/>
<path d="M181.007 197.242C179.188 196.288 176.518 192.289 173.839 191.896C172.839 191.847 170.059 192.289 169.769 191.935C170.659 191.935 173.789 191.061 175.168 191.699C177.168 193.085 179.977 195.807 181.007 197.242V197.242Z" fill="#B16953"/>
<path d="M184.477 196.18C181.347 193.753 176.588 186.108 171.469 187.336C176.818 185.312 181.847 193.222 184.477 196.18Z" fill="#B16953"/>
<path d="M187.516 118.212C187.676 118.143 191.036 121.524 190.976 121.681C190.306 122.595 186.576 118.851 187.516 118.212Z" fill="#33434B"/>
<path d="M260.829 197.439L251.941 152.529C251.581 150.701 249.781 149.512 247.922 149.866C244.952 150.397 244.852 153.561 245.622 155.851C238.623 158.317 220.866 158.838 218.647 167.83C209.468 170.247 198.42 170.09 203.31 183.013C198.82 184.634 186.233 184.664 188.342 192.319C190.072 200.053 201.27 194.363 205.989 193.734C207.569 206.519 218.457 201.006 226.715 199.237L226.695 199.158C232.664 205.507 246.942 198.824 253.9 197.753C253.84 202.716 261.649 202.401 260.819 197.429L260.829 197.439Z" fill="#D51F27"/>
<path d="M260.829 197.44C261.809 202.284 253.951 203.09 253.811 197.783L253.941 197.872C246.032 198.904 234.304 205.881 226.585 199.316L226.895 199.13L226.965 199.395C219.117 201.351 206.879 206.382 205.789 193.804L206.059 193.961C200.55 194.58 191.612 200.221 188.352 193.096C185.673 184.379 197.611 184.664 203.26 182.787L203.08 183.082C197.931 170.759 209.519 169.639 218.597 167.614L218.427 167.762C222.586 157.512 236.824 158.898 245.572 155.655L245.412 155.901C243.932 152.697 246.242 148.265 250.131 149.955C253.931 152.894 252.801 159.556 254.29 163.477C256.63 175.515 258.75 186.237 260.649 196.368C260.729 196.811 260.799 197.155 260.829 197.43C259.669 192.231 259.03 188.674 257.57 181.628C256.56 176.596 255.34 170.504 253.941 163.536C252.481 159.704 253.501 153.296 249.961 150.309C246.182 148.786 244.542 153.07 245.882 156.009C237.214 159.291 222.926 157.837 218.837 168.027C209.679 170.297 198.531 170.592 203.61 183.18C198.241 185.116 186.333 184.497 188.792 192.909C192.042 199.7 200.8 193.941 206.159 193.46C207.119 205.861 218.907 200.948 226.685 199.051L226.545 199.277C226.545 199.277 226.405 198.697 226.385 198.638C233.954 205.704 246.012 198.589 254 197.616C254.08 202.844 261.539 202.156 260.829 197.43V197.44Z" fill="#33434B"/>
<path d="M254.32 197.675C254.25 198.854 244.672 154.878 245.222 155.94C245.282 154.751 254.87 198.727 254.32 197.675Z" fill="#33434B"/>
<path d="M226.706 199.16C226.606 200.034 218.167 167.045 218.677 167.772C218.777 166.897 227.215 199.887 226.706 199.16Z" fill="#33434B"/>
<path d="M205.999 193.744C205.679 194.117 203.03 182.816 203.32 183.023C203.64 182.649 206.289 193.941 205.999 193.744Z" fill="#33434B"/>
<path d="M215.857 170.415C209.479 171.761 201.6 172.479 204.559 181.244C200.34 173.029 209.559 170.513 215.857 170.415Z" fill="white"/>
<path d="M242.163 158.505C236.124 160.696 222.556 160.067 220.937 168.332C221.936 159.527 235.954 159.949 242.163 158.505V158.505Z" fill="white"/>
<path d="M201.41 185.46C198.481 187.131 190.592 186.443 189.292 190.884C189.782 186.079 198.311 186.315 201.41 185.46V185.46Z" fill="white"/>
<path d="M249.641 150.859C247.762 150.839 245.812 153.08 246.132 154.898C244.812 153.197 247.732 149.837 249.641 150.859V150.859Z" fill="white"/>
<path d="M398.958 254.459C393.499 260.68 386.05 249.801 382.071 247.001L389.799 238.638C393.029 242.293 404.727 248.514 398.958 254.449V254.459Z" fill="#D51F27"/>
<path d="M398.958 254.458C403.947 247.894 393.709 243.265 389.64 238.814L389.979 238.794C387.52 241.457 384.71 244.494 382.251 247.157L382.231 246.823C387.12 250.38 392.799 259.962 398.958 254.449C393.019 260.63 386.64 250.557 381.731 247.01C384.3 244.219 387.2 241.084 389.789 238.293C393.849 242.754 404.667 248.051 398.968 254.439L398.958 254.458Z" fill="#33434B"/>
<path d="M354.606 207.251L339.469 194.947C338.279 193.984 338.119 192.255 339.099 191.085C340.079 189.916 341.838 189.759 343.028 190.722L358.165 203.025L354.606 207.251V207.251Z" fill="#D51F27"/>
<path d="M340.388 225.223L325.251 212.92C324.061 211.957 323.901 210.227 324.881 209.058V209.058C325.861 207.888 327.621 207.731 328.811 208.694L343.948 220.998L340.388 225.223V225.223Z" fill="#D51F27"/>
<g opacity="0.6">
<path d="M354.606 207.251L339.469 194.947C338.279 193.984 338.119 192.255 339.099 191.085C340.079 189.916 341.838 189.759 343.028 190.722L358.165 203.025L354.606 207.251V207.251Z" fill="white"/>
</g>
<g opacity="0.6">
<path d="M340.388 225.223L325.251 212.92C324.061 211.957 323.901 210.227 324.881 209.058V209.058C325.861 207.888 327.621 207.731 328.811 208.694L343.948 220.998L340.388 225.223V225.223Z" fill="white"/>
</g>
<path d="M354.606 207.25C355.686 205.796 356.575 204.774 358.045 202.926L358.065 203.133C354.666 201.649 342.408 187.419 339.319 191.203C336.559 195.212 346.757 199.536 348.587 202.16C351.136 204.312 352.686 205.521 354.606 207.24C352.586 205.766 351.106 204.499 348.517 202.484C346.137 200.037 331.67 192.018 341.618 189.876C347.437 192.981 353.426 199.408 358.375 203.005C356.805 204.774 355.856 205.953 354.606 207.25V207.25Z" fill="#33434B"/>
<path d="M340.388 225.224C341.468 223.77 342.358 222.748 343.828 220.9L343.848 221.106C340.448 219.623 328.191 205.393 325.101 209.176C322.342 213.186 332.54 217.51 334.369 220.134C336.919 222.286 338.469 223.494 340.388 225.214C338.369 223.74 336.889 222.472 334.299 220.458C331.91 217.991 317.442 209.972 327.401 207.83C333.22 210.935 339.209 217.362 344.158 220.959C342.588 222.728 341.638 223.907 340.388 225.204V225.224Z" fill="#33434B"/>
<path d="M389 222.807C393.819 218.306 387.06 210.759 381.971 214.857L359.815 196.716L334.469 226.521L357.145 244.239C353.526 249.467 361.545 255.423 365.674 250.529C381.491 262.714 403.937 235.749 389.01 222.807H389Z" fill="#D51F27"/>
<path d="M389 222.806C404.117 235.513 381.751 263.068 365.534 250.705L365.834 250.676C363.994 252.858 360.305 253.231 358.065 251.295H358.085C355.976 249.664 355.396 246.372 356.945 244.111L356.995 244.426C349.857 238.844 341.678 232.466 334.12 226.56C343.438 215.613 352.176 205.363 359.785 196.431C368.593 203.683 376.282 210.002 382.061 214.758H381.881C387.34 210.434 393.879 218.748 389 222.816C393.439 218.62 387.46 210.788 381.961 215.043C376.112 210.277 368.583 204.145 359.675 196.893L359.975 196.863C352.486 205.688 343.868 215.839 334.65 226.688L334.61 226.344C342.168 232.25 350.307 238.618 357.445 244.2C355.896 246.283 356.366 249.428 358.375 250.981H358.355C360.475 252.779 363.954 252.356 365.614 250.234C381.581 262.586 403.497 235.611 388.98 222.806H389Z" fill="#33434B"/>
<path d="M348.003 210.706L345.473 213.713L361.107 226.42L363.636 223.413L348.003 210.706Z" fill="#E6E6E6"/>
<path d="M389 222.806C382.671 231.188 372.503 242.705 365.554 250.675C371.883 242.293 382.051 230.775 389 222.806Z" fill="#33434B"/>
<path d="M381.971 214.855C375.102 223.641 364.264 235.836 356.785 244.199C363.654 235.414 374.492 223.218 381.971 214.855V214.855Z" fill="#33434B"/>
<path d="M366.339 111.031C357.61 121.644 350.084 130.07 339.023 143.046C336.169 140.965 332.956 138.622 330.142 136.562L330.463 136.53C320.49 149.639 314.243 158.28 306.064 168.632C313.757 157.834 320.387 149.287 330.195 136.008C333.022 138.075 336.231 140.408 339.089 142.499L338.774 142.518C349.989 129.716 357.138 121.159 366.339 111.031V111.031Z" fill="#33434B"/>
<path d="M373.668 146.758C366.185 151.854 359.648 155.719 350.221 161.75C349.431 160.417 348.528 158.911 347.729 157.557L348.072 157.672C338.189 163.569 332.123 168.264 324.727 173.84C331.716 167.673 338.165 163.09 347.993 157.082C348.788 158.425 349.695 159.942 350.482 161.265L350.129 161.153C359.658 155.323 365.833 151.243 373.659 146.761L373.668 146.758Z" fill="#33434B"/>
<path d="M298.348 138.276C298.665 137.561 297.909 165.571 297.633 164.762C297.316 165.476 298.077 137.476 298.348 138.276V138.276Z" fill="#33434B"/>
<path d="M336.179 152.614C337.048 152.378 313.093 170.938 313.562 170.138C312.688 170.387 336.639 151.817 336.179 152.614Z" fill="#33434B"/>
<path d="M274.89 128.858C278.056 132.574 280.581 136.02 284.49 140.916C282.352 141.626 280.114 142.373 277.672 143.181L277.771 142.837C283.321 152.122 288.345 160.128 292.794 168.031C287.822 160.389 282.93 152.049 277.252 142.8C279.639 142.021 281.993 141.255 284.072 140.587L283.998 140.922C280.236 135.92 277.706 132.837 274.898 128.855L274.89 128.858Z" fill="#33434B"/>
<path d="M270.32 210.385C269.634 210.635 286.919 191.826 286.703 192.558C287.399 192.305 270.104 211.117 270.32 210.385V210.385Z" fill="#33434B"/>
<path d="M294.811 208.818C294.423 209.051 298.274 195.236 298.473 195.714C298.861 195.482 295.01 209.296 294.811 208.818Z" fill="#33434B"/>
<path d="M318.944 235.931C319.01 237.102 305.934 193.438 306.529 194.491C306.464 193.32 319.536 236.974 318.944 235.931Z" fill="#33434B"/>
<path d="M271.606 162.642C271.613 162.252 278.857 169.262 278.489 169.304C278.483 169.694 271.238 162.684 271.606 162.642Z" fill="#33434B"/>
</svg>
